^C:\USERS\柴\DOCUMENTS\VISUAL STUDIO 2012\PROJECTS\PTAM_LK_TRACKING\PTAM_LK_TRACKING\DEBUG\源.OBJ
C:\USERS\柴\DOCUMENTS\VISUAL STUDIO 2012\PROJECTS\PTAM_LK_TRACKING\DEBUG\PTAM_LK_TRACKING.ILK
C:\USERS\柴\DOCUMENTS\VISUAL STUDIO 2012\PROJECTS\PTAM_LK_TRACKING\DEBUG\PTAM_LK_TRACKING.EXE
C:\USERS\柴\DOCUMENTS\VISUAL STUDIO 2012\PROJECTS\PTAM_LK_TRACKING\DEBUG\PTAM_LK_TRACKING.PDB
